{
  "editor": [
    {
      "icon": "",
      "key": "settings",
      "header": "Settings",
      "disabled": false,
      "fields": [
        {
          "key": "backgroundImage",
          "header": "Background Image",
          "type": "image"
        },
        {
          "key": "images",
          "header": "Images",
          "type": "array",
          "fields":[
            {
              "key":"Image1",
              "header":"Image 1",
              "type":"array",
              "fields":[
                {
                  "key":"image",
                  "header":"Image 1",
                  "type":"image"
                }
              ]
            },
            {
              "key":"Image2",
              "header":"Image 2",
              "type":"array",
              "fields":[
                {
                  "key":"image",
                  "header":"Image 1",
                  "type":"image"
                }
              ]
            
            },
            {
              "key":"Image3",
              "header":"Image 3",
              "type":"array","fields":[
                {
                  "key":"image",
                  "header":"Image 1",
                  "type":"image"
                }
              ]
          
            },
            {
              "key":"Image4",
              "header":"Image 4",
              "type":"array",
              "fields":[
                {
                  "key":"image",
                  "header":"Image 1",
                  "type":"image"
                }
              ]
            
            },
            {
              "key":"Image5",
              "header":"Image 5",
              "type":"array",
              "fields":[
                {
                  "key":"image",
                  "header":"Image 1",
                  "type":"image"
                }
              ]
            
            },
            {
              "key":"Image6",
              "header":"Image 6",
              "type":"array",
              "fields":[
                {
                  "key":"image",
                  "header":"Image 1",
                  "type":"image"
                }
              ]
            
            },
            {
              "key":"Image7",
              "header":"Image 7",
              "type":"array",
              "fields":[
                {
                  "key":"image",
                  "header":"Image 1",
                  "type":"image"
                }
              ]
            
            },
            {
              "key":"Image8",
              "header":"Image 8",
              "type":"array",
              "fields":[
                {
                  "key":"image",
                  "header":"Image 1",
                  "type":"image"
                }
              ]
            
            },
            {
              "key":"Image9",
              "header":"Image 9",
              "type":"array",
              "fields":[
                {
                  "key":"image",
                  "header":"Image 1",
                  "type":"image"
                }
              ]
          
            },
            {
              "key":"Image10",
              "header":"Image 10",
              "type":"array",
              "fields":[
                {
                  "key":"image",
                  "header":"Image 1",
                  "type":"image"
                }
              ]
            
            }
           
          ]
        },
        {
          "key":"music",
          "header":"Background Music",
          "type":"sound"
        }
      ]
    }
  ],
  "config": {
    "settings": {
      "backgroundImage":"./assets/blackback.jpg",
      "front":"./assets/black.jpg",
      "back":"#fff",
      "images":{

        "Image1":{
          "image":"./assets/harrypotter.jpg"
        },

        "Image2":{
          "image":"./assets/hermoine.jpg"
        },
        "Image3":{
          "image":"./assets/ron.jpg"
        },
        "Image4":{
          "image":"./assets/dumbledore.jpg"
        },
        "Image5":{
          "image":"./assets/draco.jpg"
        },
        "Image6":{
          "image":"./assets/snape.jpg"
        },
        "Image7":{
          "image":"./assets/navell.jpg"
        },
        "Image8":{
          "image":"./assets/prof.jpg"
        },
        "Image9":{
          "image":"./assets/voldemort.jpg"
        },
        "Image10":{
          "image":"./assets/hagrid.jpg"
        }
      },
      "music": "./assets/music.mp3"
    }
  }
}
